{
    "dataBlog":
    [
        {
            "name": "Olivia Mason",
            "comment": "System Architect  lorem lorem lorem lorem "
        },
        {
            "name": "Jennifer Laurence",
            "comment": "Senior Programmer lorem lorem lorem lorem lorem Sed efficitur magna sodales hendrerit aliquam. Sed vitae tempor enim. lorem Sed efficitur magna sodales hendrerit aliquam. Sed vitae tempor enim."
        },
        {
            "name": "Medona Oliver",
            "comment": "Office Manager lorem lorem lorem lorem lorem lorem"
        }
    ]
}